<svg xmlns="http://www.w3.org/2000/svg" width="35" height="29" viewBox="0 0 35 29">
    <path fill="#606060" fill-rule="evenodd" d="M20.958 9.786a4.07 4.07 0 0 0-.137-.002H6.815v9.5h14.006l.137-.003V28l13.357-13.358L20.958 1.284v8.502zm-5.2 15.91H3.85c-.223 0-.492-.307-.492-.775V4.692c0-.467.27-.774.492-.774h11.908V.806H3.85C1.82.806.258 2.59.258 4.692v20.229c0 2.103 1.56 3.885 3.592 3.885h11.908v-3.11z"/>
</svg>
